   program version netid     address                service    owner
    100000    4    ticots    moon-14.rpc            portmapper superuser
    100000    3    ticots    moon-14.rpc            portmapper superuser
    100000    4    ticotsord moon-14.rpc            portmapper superuser
    100000    3    ticotsord moon-14.rpc            portmapper superuser
    100000    4    ticlts    moon-14.rpc            portmapper superuser
    100000    3    ticlts    moon-14.rpc            portmapper superuser
    100000    4    tcp       0.0.0.0.0.111          portmapper superuser
    100000    3    tcp       0.0.0.0.0.111          portmapper superuser
    100000    2    tcp       0.0.0.0.0.111          portmapper superuser
    100000    4    udp       0.0.0.0.0.111          portmapper superuser
    100000    3    udp       0.0.0.0.0.111          portmapper superuser
    100000    2    udp       0.0.0.0.0.111          portmapper superuser
    100029    1    ticlts    moon-14.keyserv        keyserv    superuser
    100029    1    ticotsord moon-14.keyserv        keyserv    superuser
    100029    1    ticots    moon-14.keyserv        keyserv    superuser
    100029    2    ticlts    moon-14.keyserv        keyserv    superuser
    100029    2    ticotsord moon-14.keyserv        keyserv    superuser
    100029    2    ticots    moon-14.keyserv        keyserv    superuser
    100029    3    ticlts    moon-14.keyserv        keyserv    superuser
    100029    3    ticotsord moon-14.keyserv        keyserv    superuser
    100029    3    ticots    moon-14.keyserv        keyserv    superuser
    100024    1    udp       0.0.0.0.128.5          status     superuser
    100024    1    tcp       0.0.0.0.128.4          status     superuser
    100024    1    ticlts    \000\000\020&          status     superuser
    100024    1    ticotsord \000\000\020)          status     superuser
    100024    1    ticots    \000\000\020,          status     superuser
    100133    1    udp       0.0.0.0.128.5          -          superuser
    100133    1    tcp       0.0.0.0.128.4          -          superuser
    100133    1    ticlts    \000\000\020&          -          superuser
    100133    1    ticotsord \000\000\020)          -          superuser
    100133    1    ticots    \000\000\020,          -          superuser
    100021    1    udp       0.0.0.0.15.205         nlockmgr   superuser
    100021    2    udp       0.0.0.0.15.205         nlockmgr   superuser
    100021    3    udp       0.0.0.0.15.205         nlockmgr   superuser
    100021    4    udp       0.0.0.0.15.205         nlockmgr   superuser
    100021    1    tcp       0.0.0.0.15.205         nlockmgr   superuser
    100021    2    tcp       0.0.0.0.15.205         nlockmgr   superuser
    100021    3    tcp       0.0.0.0.15.205         nlockmgr   superuser
    100021    4    tcp       0.0.0.0.15.205         nlockmgr   superuser
    300019    1    tcp       0.0.0.0.128.13         amd        superuser
    300019    1    udp       0.0.0.0.128.27         amd        superuser
 610490821    1    tcp       0.0.0.0.3.254          -          superuser
 610490821    2    tcp       0.0.0.0.3.255          -          superuser
1289637086    5    tcp       0.0.0.0.128.37         -          999
1289637086    1    tcp       0.0.0.0.128.37         -          999
